8 HCUP and Amadeus Smoke Plume Use Case | CHORDS Training and Use Cases Toolkit
…
    # Write output CSV
    output_file <- paste0("OR_", data_source, "_", year, "_", data_type, ".csv")
    write.csv(df2, file = output_file, row.names = FALSE)
  } # Ends 'year in years' for loop
} # Ends 'data_source in data_sources' for loop
#Output file: OR_SEDD_2021_CORE.csv

We can test what that our positions are right for reading in raw data by printing df.

print(df)
# A tibble: 702 × 10
#    X1       X2 X3       X4 X5          X6    X7    X8 X9    X10
#    <chr> <dbl> <chr> <dbl> <chr>    <dbl> <dbl> <dbl> <chr> <chr>
#  1 OR     2021 CORE      1 AGE          1     3    NA Num   Age in years at…
#  2 OR     2021 CORE      2 AGEDAY       4     6    NA Num   Age in days (when…
#  3 OR     2021 CORE      3 AGEMONTH     7     9    NA Num   Age in months (wh…
#  4 OR     2021 CORE      4 AHOUR       10    13    NA Num   Admission Hour
#  5 OR     2021 CORE      5 AMONTH      14    15    NA Num   Admission month
#  6 OR     2021 CORE      6 ATYPE       16    17    NA Num   Admission type
#  7 OR     2021 CORE      7 AWEEKEND    18    19    NA Num   Admission day is…
#  8 OR     2021 CORE      8 CPT1        20    24    NA Cha   CPT/HCPCS procede…
#  9 OR     2021 CORE      9 CPT2        25    29    NA Cha   CPT/HCPCS procedu…
# 10 OR     2021 CORE     10 CPT3        30    34    NA Cha   CPT/HCPCS procedu…
# ℹ 692 more rows
# ℹ Use `print(n = ...)` to see more rows
…
